{
  "project_info": {
    "project_number": "597502332901",
    "project_id": "terminal-register",
    "storage_bucket": "terminal-register.appspot.com"
  },
  "client": [
    {
      "client_info": {
        "mobilesdk_app_id": "1:597502332901:android:71eaacc9f183f8dd7d690c",
        "android_client_info": {
          "package_name": "wee.digital.terminalregister"
        }
      },
      "oauth_client": [
        {
          "client_id": "597502332901-2dj5rbou6t5o59h4kf07j9so3qen753o.apps.googleusercontent.com",
          "client_type": 3
        }
      ],
      "api_key": [
        {
          "current_key": "AIzaSyCTH0d0B6zEatnHxvHNFIh7mEyFwv1Huk0"
        }
      ],
      "services": {
        "appinvite_service": {
          "other_platform_oauth_client": [
            {
              "client_id": "597502332901-2dj5rbou6t5o59h4kf07j9so3qen753o.apps.googleusercontent.com",
              "client_type": 3
            }
          ]
        }
      }
    }
  ],
  "configuration_version": "1"
}